<?xml version='1.0' encoding='utf-8'?>
<ns0:kml xmlns:ns0="http://www.opengis.net/kml/2.2">
  <ns0:Document>
    <ns0:Style id="style_zone">
      <ns0:LineStyle>
        <ns0:color>FFFF0000</ns0:color>
      </ns0:LineStyle>
    </ns0:Style>
    <ns0:Folder>
      <ns0:name>Выполненные_полёты</ns0:name>
      <ns0:description>&lt;table border = "1" cellpadding = "2"&gt;&lt;tr&gt;&lt;td&gt;Номер полета&lt;/td&gt;&lt;td&gt;001&lt;/td&gt;&lt;/tr&gt;&lt;tr&gt;&lt;td&gt;Номер борта&lt;/td&gt;&lt;td&gt;20305&lt;/td&gt;&lt;/tr&gt;&lt;tr&gt;&lt;td&gt;Дата&lt;/td&gt;&lt;td&gt;18.06.2023&lt;/td&gt;&lt;/tr&gt;&lt;tr&gt;&lt;td&gt;Время&lt;/td&gt;&lt;td&gt;08:45:08&lt;/td&gt;&lt;/tr&gt;&lt;/table&gt;</ns0:description>
    <Folder name="20305"><name>20305</name><ns0:Folder>
        <ns0:name>2023_06_18_Nadir_g201b20305_f001_</ns0:name>
        <ns0:Placemark>
          <ns0:name>Область съемки</ns0:name>
          <ns0:styleUrl>#style_zone</ns0:styleUrl>
          <ns0:Polygon>
            <ns0:outerBoundaryIs>
              <ns0:LinearRing>
                <ns0:coordinates>44.508510990741115,43.81130034098013,0.0 44.508836175951544,43.80931072340754,150.3961638417095 44.506986335041674,43.80904998951919,0.0 44.50714018141087,43.808453627095005,153.31901824567467 44.505690728899545,43.8081936195747,0.0 44.505694279149736,43.808180854303416,153.66634008660913 44.50363364795125,43.80780160877802,0.0 44.50369409741631,43.807591978769985,148.97598706185818 44.49754924581218,43.80643494640009,148.5751457652077 44.49750841150789,43.80656665140516,0.0 44.496475844787895,43.8063789809223,0.0 44.496484830536126,43.806350561943674,155.11970789264888 44.490403037218606,43.80515194638084,155.10415716655552 44.490398031621346,43.805166744586614,0.0 44.48662917192944,43.80443766552717,152.56086236517876 44.48659952851553,43.804528738802716,0.0 44.483791604282395,43.80402213982427,0.0 44.48379370421933,43.80401557926606,148.5923057049513 44.47761728356628,43.802914040299385,155.09039296675473 44.47756012324864,43.80309530435359,0.0 44.47545858066331,43.80269143867803,154.18234037794173 44.475449364752485,43.80271944664175,0.0 44.47166068826706,43.80196423357145,153.29583759978414 44.4716003261911,43.802150490550666,0.0 44.469898254515236,43.80181982425429,153.80633900221437 44.46988239974735,43.801867447135585,0.0 44.468703923233264,43.80165045761711,0.0 44.46870837435163,43.80163659471939,151.03065053373575 44.46258181968757,43.800483350303,157.99478233791888 44.462537394352054,43.80061895025497,0.0 44.460535559090374,43.80023677739854,158.08766382280737 44.46053141612188,43.80024946156947,0.0 44.45883481955327,43.7999279119546,154.65211551077664 44.45883253012099,43.79993512087133,0.0 44.457094063737706,43.799610762558046,152.22067064605653 44.45707858190004,43.79965848490042,0.0 44.455010557545044,43.79927052947203,157.66725608613342 44.454994579089494,43.79932142708253,0.0 44.45324263570961,43.7989780317092,154.48134744353592 44.453240433358346,43.79898471060739,0.0 44.44763521770249,43.797895774690126,153.42147331498563 44.447580300891644,43.79806710696154,0.0 44.4457554067881,43.79771980940406,156.81023188587278 44.444827513738566,43.80062849999822,0.0 44.44071839951142,43.800161196834715,158.90256116446108 44.44070086893253,43.80022191047593,0.0 44.437452210304436,43.799736665135484,0.0 44.43752871393676,43.799498834250485,153.42989017721266 44.43113933796527,43.798665510946485,154.629830959253 44.430229415492605,43.801697508071854,0.0 44.42770059078552,43.801121201890695,154.4290633480996 44.42758340274276,43.801502203627585,0.0 44.42400008222575,43.80072001908532,161.0330473445356 44.42377888656565,43.80140700121395,0.0 44.42298619885649,43.801256115077464,0.0 44.423054181749514,43.801037258029574,161.2251431401819 44.416931059160646,43.79982442244366,154.9393893238157 44.416899326595264,43.79992509982295,0.0 44.415235615230316,43.79961633682187,157.32675371225923 44.415195654056554,43.799740236769324,0.0 44.411597583603125,43.79907554005485,161.69623931031674 44.41158503178623,43.79911394614893,0.0 44.40990152326264,43.79881600326461,0.0 44.40990598035994,43.798802195053746,162.72893304377794 44.40687808878747,43.79817036025527,0.0 44.40695485432225,43.797946946348205,162.33732581324875 44.400722385577325,43.796792722451734,163.06665260531008 44.40061142389142,43.79715016664595,0.0 44.39921720994879,43.79693112999184,156.15932696778327 44.399144787904326,43.797163391137744,0.0 44.39802680237369,43.79700855312064,158.80217901431024 44.39708506007969,43.79982669268719,0.0 44.394745798612306,43.799486292058894,161.29058055300266 44.394726231833666,43.79954801803049,0.0 44.3939463307476,43.79944523967628,0.0 44.39407404661904,43.79905264847828,162.52489065844566 44.390974032183614,43.798672346093966,0.0 44.39101477482153,43.79853681686767,162.64918962307274 44.388591969502556,43.79833706047984,0.0 44.38873932375297,43.79778839211371,165.18286161776632 44.38213304067869,43.79729658745165,159.15225181914866 44.38143463715262,43.800522997140135,0.0 44.38122018161584,43.800477511892346,166.1462670173496 44.38110066498112,43.80085510025035,0.0 44.37927609905324,43.80045836898742,160.18873328436166 44.37925393835189,43.800524798992704,0.0 44.377350293345756,43.80014368337038,161.74489488080144 44.37725363974849,43.80045835836496,0.0 44.375629477750316,43.80014271989538,161.14124803431332 44.3735611723213,43.80646078572607,0.0 44.37341602520208,43.80643030629213,167.17531043849885 44.37123830362276,43.813391827959265,167.03787412773818 44.37284520189145,43.81358350216344,0.0 44.370846006300354,43.82009078165131,166.84939023293555 44.372569073134656,43.820313848578266,0.0 44.372414818468414,43.820796413500375,172.87790844775736 44.37671823848315,43.821295702197325,0.0 44.37647628049966,43.82199956529824,171.38917707744986 44.377261938474035,43.822109321213524,0.0 44.377260774800945,43.822112922472584,165.30516594462097 44.37732356317241,43.82211793014437,0.0 44.38304808523944,43.82291764220675,163.78509808890522 44.383136661670015,43.82258155244694,0.0 44.38396032654107,43.82264724364488,166.75863835960627 44.3840139230548,43.82244605389135,0.0 44.38431256833133,43.82248266233218,0.0 44.38426440289258,43.82263787761196,168.50291704759002 44.38780801670305,43.823111461674465,0.0 44.387753301853486,43.82328093795637,166.66043609008193 44.38958023758811,43.8235192523947,0.0 44.3895565320619,43.82359311427954,168.1391611341387 44.39587911705555,43.82441168820338,168.2866049790755 44.39589163041464,43.824370425899794,0.0 44.39672080526818,43.824473738254284,0.0 44.39664061972827,43.824727779832976,167.661687576212 44.39866403764758,43.82496565288901,0.0 44.398617447738914,43.82510563383128,164.51045440416783 44.40442371949682,43.82585668302,0.0 44.40427043532419,43.82631142947554,162.00618262495846 44.40814599815517,43.826808807629526,0.0 44.40814436307544,43.82681377020042,161.87111355736852 44.4145356539093,43.82764985388132,167.65576917212456 44.41455173954813,43.827596439613565,0.0 44.41639910217596,43.82782456791708,159.89434543903917 44.416450707062694,43.82764462688028,0.0 44.416895724652846,43.82769873727589,0.0 44.41666776106298,43.828369828735624,165.0118222311139 44.4228793142088,43.82907416260431,0.0 44.422903227596386,43.829077725370745,0.0 44.42284850615991,43.829243238946205,161.470051006414 44.42797825239676,43.82988265849437,0.0 44.42835590306315,43.8299476792808,0.0 44.42827654701919,43.830192340396884,159.40709237474948 44.43006613458227,43.83053239843306,0.0 44.42999739038376,43.83073288062183,161.56020455341786 44.43657806424416,43.83205912871787,159.80397376418114 44.43667406650461,43.83169336263581,0.0 44.4401269132404,43.832036940324926,165.0748144481331 44.440164019578404,43.83189880700097,0.0 44.44184411138327,43.832094041361714,158.0541960876435 44.44287373357757,43.828765034465356,0.0 44.44508793658779,43.829180283905956,163.85166584234685 44.445147450695515,43.82899444184624,0.0 44.44677104565955,43.8293537906352,0.0 44.44670043873888,43.82956176094948,165.4109685299918 44.44896441201884,43.82988508766254,0.0 44.448835262265995,43.830279191628414,161.89535122457892 44.45423206742492,43.830983242357924,0.0 44.45412395328423,43.83127843828497,167.59607023373246 44.46058636438382,43.83222712062485,165.75645907316357 44.46072499362499,43.83176534355392,0.0 44.46213251016349,43.83199703442022,0.0 44.4621306716972,43.83200242463726,167.32572426646948 44.464936042182366,43.83245852296717,0.0 44.466897741209365,43.83278143764317,164.6041502552107 44.46689891053814,43.83277764694158,0.0 44.46834028023434,43.8330119854415,163.0622630873695 44.468365627716224,43.83293513898972,0.0 44.469546366895926,43.83313751496563,0.0 44.472361311490666,43.83374104235936,0.0 44.4722527078276,43.834046681881205,162.86427711509168 44.478609891579296,43.83531525582685,162.59550568833947 44.47881981804487,43.83460163730347,0.0 44.48090675203987,43.83500529055976,162.8950608568266 44.48092155049179,43.83495804193246,0.0 44.48256865285059,43.835275597418125,169.02499271277338 44.48263550469287,43.83507329408308,0.0 44.483961626459006,43.83532929270117,0.0 44.48381582710247,43.83576351370924,162.6857532262802 44.49007959304299,43.837009733096195,165.85117045324296 44.49027660514027,43.83633471745126,0.0 44.491592689627005,43.83661615562057,0.0 44.49155255182103,43.836742218010535,167.04486780054867 44.49770850591979,43.83801034145596,170.0380325485021 44.49773467509496,43.83792812434181,0.0 44.500894480036756,43.83856249622647,165.27840484678745 44.501055674947466,43.838068724897965,0.0 44.50485791444033,43.83880729047795,168.54029166791588 44.505941412312666,43.83567257493976,0.0 44.507671036826736,43.83588509987982,167.05380770377815 44.50789312340492,43.83519110768916,0.0 44.51005295360183,43.8356423612402,167.58332443609834 44.51310581988208,43.82918622547093,164.1062476048246 44.51095938774721,43.828663884379885,0.0 44.51097991829084,43.82859552776824,0.0 44.51206098784872,43.82883172270808,159.64498930145055 44.513309957888474,43.826434216237345,0.0 44.51443843418727,43.82664759943946,159.23916686698794 44.51669014537246,43.819696853890974,151.04353787843138 44.51556054606421,43.81954836831926,0.0 44.51608376791474,43.81796946586578,0.0 44.51703164444365,43.81580291477055,150.52057971805334 44.516818341892986,43.815752775841645,0.0 44.51786024941724,43.81260865954634,147.65167135745287 44.51363217456986,43.812118173524915,0.0 44.513668538411295,43.81200987595558,149.17512881290168 44.508510990741115,43.81130034098013,0.0</ns0:coordinates>
              </ns0:LinearRing>
            </ns0:outerBoundaryIs>
          </ns0:Polygon>
        </ns0:Placemark>
        <ns0:Placemark>
          <ns0:name>Область съемки</ns0:name>
          <ns0:styleUrl>#style_zone</ns0:styleUrl>
          <ns0:Polygon>
            <ns0:outerBoundaryIs>
              <ns0:LinearRing>
                <ns0:coordinates>44.38907235300075,43.83129911473948,0.0 44.3905963616276,43.82775210066689,166.6771559389308 44.38422855710135,43.826218108649655,167.1079923324287 44.38384246254869,43.827335216307496,0.0 44.38082763961168,43.82671097972584,0.0 44.38083766512514,43.826681968275935,170.96830139495432 44.374672730594,43.82537723607019,167.43991337064654 44.373757798216985,43.828166350242384,0.0 44.36887583161851,43.827647165563484,170.4928975161165 44.368015057339015,43.83117425663255,0.0 44.36729016260498,43.831075597876264,169.93379554431885 44.36634768950997,43.834070625765,0.0 44.36478287984462,43.833893293570014,177.31422403361648 44.36387922704052,43.83829656785698,0.0 44.36145042682691,43.84482212586724,173.69854442868382 44.362553482225636,43.845016555456276,0.0 44.361947989598036,43.847615594805845,169.46354944910854 44.36337291899984,43.847826268635664,0.0 44.363061233408324,43.84871742507901,169.1064530722797 44.369420329556505,43.84983414255318,167.84261914063245 44.36969201028589,43.84891175602,0.0 44.370149925890885,43.84898553098071,0.0 44.37013604536267,43.849031404779346,168.78889637067914 44.37619753238805,43.85029686177799,169.16113844234496 44.37620202230902,43.85028330726442,0.0 44.37702844946482,43.85046309964904,0.0 44.37702588668083,43.85047070439754,168.60133005306125 44.37757641705881,43.8505823120923,0.0 44.37835303631987,43.85075126857916,176.77401637099683 44.378356663880396,43.85074048964723,0.0 44.38316842758591,43.851715966889536,176.70995550137013 44.38323714082172,43.851515973402975,0.0 44.385210237964344,43.85190619031878,174.17960786167532 44.38731288938075,43.8455003659486,0.0 44.387884557363535,43.8456020905188,174.00070924405009 44.38894810865147,43.842164199658846,0.0 44.38953267217567,43.84107333557196,167.10639276728034 44.38930482145311,43.841011138500164,0.0 44.39000391123648,43.83875135619929,166.58817521110177 44.38881415198561,43.838577758199534,0.0 44.38886096986713,43.83843051284755,0.0 44.38985254742469,43.83863262074983,163.7282810145989 44.39212533720675,43.831685110753035,167.46293250564486 44.38907235300075,43.83129911473948,0.0</ns0:coordinates>
              </ns0:LinearRing>
            </ns0:outerBoundaryIs>
          </ns0:Polygon>
        </ns0:Placemark>
        <ns0:Placemark>
          <ns0:name>Трек аэрофотосъемки</ns0:name>
          <ns0:visibility>true</ns0:visibility>
          <ns0:description>&lt;table border = "1" cellpadding = "2"&gt;&lt;tr&gt;&lt;td&gt;Номер полета&lt;/td&gt;&lt;td&gt;001&lt;/td&gt;&lt;/tr&gt;&lt;tr&gt;&lt;td&gt;Номер борта&lt;/td&gt;&lt;td&gt;20305&lt;/td&gt;&lt;/tr&gt;&lt;tr&gt;&lt;td&gt;Дата&lt;/td&gt;&lt;td&gt;18.06.2023&lt;/td&gt;&lt;/tr&gt;&lt;tr&gt;&lt;td&gt;Время&lt;/td&gt;&lt;td&gt;08:45:08&lt;/td&gt;&lt;/tr&gt;&lt;/table&gt;</ns0:description>
          <ns0:LineString>
            <ns0:altitudeMode>absolute</ns0:altitudeMode>
            <ns0:coordinates>44.4587467,43.9726624,164.68701470043447 44.506061,43.8112416,914.8818029529621 44.5042013,43.8109398,914.8380054366631 44.5023576,43.8106417,917.2712872770585 44.5005204,43.8103368,915.4015780796499 44.4986354,43.8100262,917.5274942192824 44.4967853,43.809717,914.7525073053503 44.4949049,43.8094033,916.0233736871237 44.4930711,43.809094,916.23745572216 44.4912108,43.8087858,915.2054236369472 44.4893562,43.8084769,918.2744134437711 44.4875178,43.8081688,920.4764754556115 44.4856515,43.807861,919.8624149098162 44.4837988,43.8075518,918.0134088958932 44.4819582,43.8072446,916.4634605557993 44.4800872,43.806934,915.300368094741 44.4782174,43.8066258,913.869286646865 44.4763467,43.8063154,913.1551938472488 44.4745042,43.806008,915.5112322180157 44.4726238,43.805694,917.0820843344795 44.4707676,43.8053861,915.4410589738845 44.4689012,43.8050748,916.1939780097827 44.4670619,43.8047668,918.1040243057616 44.4652176,43.8044597,916.6750501615065 44.4633721,43.8041541,914.876073976921 44.4615159,43.8038456,915.3380414114769 44.4596441,43.8035354,916.6159343904789 44.4577656,43.803223,915.5567905118124 44.4558807,43.8029098,916.7276151096056 44.4539962,43.8025955,915.7534371571485 44.4521388,43.8022871,916.2523940584165 44.4502942,43.8019796,916.3004086520976 44.4484375,43.8016716,915.4593675881999 44.4324234,43.8025054,922.4034814429572 44.4342809,43.8028124,917.470526364061 44.4361568,43.8031175,911.336645435529 44.4380419,43.8034279,909.9268191515242 44.4398858,43.8037298,908.6427863109855 44.4417319,43.8040391,911.4527834854554 44.4435908,43.8043489,914.8518371748511 44.4454468,43.8046588,913.1888773239502 44.4472879,43.8049656,911.6548420381156 44.4491617,43.8052767,910.9359615425193 44.4510233,43.8055841,913.7500157287589 44.4528746,43.8058954,911.7670348893598 44.4547493,43.8062059,912.8041532700663 44.4565849,43.8065112,915.2140840658232 44.4584226,43.8068164,914.2870227070617 44.4602616,43.8071234,915.7599711528178 44.4621003,43.8074293,915.0369140351115 44.4639504,43.8077353,916.217906109092 44.4658085,43.8080452,913.7129433743576 44.4676675,43.8083517,914.8619737180866 44.4695247,43.8086616,914.1660048326642 44.4713629,43.808967,912.9779386541207 44.4732107,43.809277,916.6679266577627 44.4750958,43.8095916,915.0030902138797 44.4769355,43.8098948,911.41602103787 44.478771,43.8102046,913.5439512641153 44.4806333,43.8105111,914.0499884003075 44.4824878,43.8108227,914.1100048337155 44.4843612,43.8111299,913.0170904023489 44.4862312,43.8114434,911.5221779458105 44.4881172,43.8117566,911.7813335996734 44.4899883,43.8120675,915.1954162971422 44.4918524,43.8123786,915.6584677864461 44.4937131,43.8126893,915.2035021325058 44.4955871,43.8130045,926.4676064152558 44.4974435,43.8133074,923.5545975275534 44.4993238,43.8136177,912.3487132375571 44.5011795,43.8139277,910.4135919413067 44.5030625,43.8142406,913.464522737682 44.504928,43.8145515,914.2333736727002 44.5068038,43.8148651,913.5082768340003 44.5086743,43.8151752,912.704147967634 44.5105237,43.8154838,911.9959252632957 44.5123814,43.8157932,911.8937408377247 44.5127326,43.8193525,922.6503711820679 44.5108952,43.8190379,920.3296243312295 44.5090534,43.818729,918.2998754469418 44.5071722,43.8184167,918.7709490911627 44.5052954,43.8181031,919.4010384039148 44.5034279,43.8177897,920.6241685846301 44.5015692,43.8174791,922.4413448783378 44.499711,43.8171698,918.9154977075893 44.4978628,43.8168633,918.732539788235 44.4960289,43.8165553,924.8696390938418 44.4941697,43.8162456,922.0126217544529 44.4923164,43.8159365,924.7156308405038 44.4904435,43.8156237,922.3765424955735 44.4885811,43.8153126,922.9875038341262 44.4867143,43.8150065,917.4314590625828 44.484863,43.814698,914.5854742002809 44.4830242,43.8143897,917.7075435400026 44.4811878,43.8140876,926.3836400195988 44.479328,43.8137716,923.8495932190547 44.4774441,43.8134619,923.2844577826594 44.4755956,43.8131547,923.7884834144583 44.4737525,43.8128467,920.640529314008 44.4718669,43.8125339,920.7143742135636 44.4700149,43.8122266,921.9143809359907 44.468134,43.8119111,921.0372364287481 44.4662552,43.8115985,920.4141083119002 44.4644088,43.81129,923.9531328012621 44.4625356,43.8109796,921.3660333095612 44.460682,43.8106712,923.3330243394319 44.4588163,43.8103599,922.9089528982531 44.456964,43.8100523,922.6019497263514 44.4551205,43.8097469,920.9719903705586 44.453244,43.8094325,923.0378593329311 44.4513629,43.8091201,918.9097127730072 44.4494957,43.8088077,921.9466260160542 44.4476512,43.8085008,923.4046535488119 44.4457901,43.8081912,924.3055994095677 44.4439051,43.8078773,921.7504269325016 44.442041,43.8075665,917.7193539369025 44.4401858,43.8072589,916.9203281274845 44.4383343,43.8069502,917.2913142589903 44.4364619,43.8066374,922.0311957394736 44.4346013,43.8063282,917.5151382994112 44.4327178,43.8060168,919.2809729201994 44.4308404,43.8057012,921.2168209658031 44.4289561,43.8053902,921.8856509823966 44.427103,43.8050805,919.9426205350802 44.4252579,43.8047725,921.0686290352054 44.423418,43.8044693,923.8996732452154 44.421544,43.8041538,920.7005308949115 44.4196886,43.8038443,923.1044865346704 44.4178331,43.8035369,923.9364467626642 44.4159878,43.8032288,925.3094486178478 44.4141316,43.8029199,922.9903992012555 44.4122546,43.8026087,920.2782506565679 44.4103975,43.8022986,920.6071915658943 44.4085504,43.8019928,923.9001878599324 44.4066987,43.8016826,925.0411499836167 44.4048349,43.8013713,921.1280546527055 44.4029887,43.8010644,925.0740483948747 44.4011043,43.80075,931.632851290504 44.3992496,43.8004418,931.6228016862657 44.3831032,43.8012558,924.3272966534413 44.3849432,43.8015479,923.674237542964 44.3867855,43.8018485,925.3892125619232 44.388658,43.8021569,925.9353420794174 44.3905152,43.8024687,924.5024133401207 44.3923714,43.802776,922.7164658547139 44.3942358,43.8030886,923.5965688543757 44.3960985,43.8033966,925.3366497513615 44.3979516,43.8037059,924.6736912371189 44.399828,43.8040195,923.8098464916999 44.401704,43.8043316,923.1949944597955 44.4035453,43.8046375,921.6479708739244 44.4054312,43.8049531,922.1661703067743 44.4073047,43.8052658,924.2513057047142 44.4091759,43.8055771,925.7664257904845 44.4110438,43.8058897,925.421534085918 44.412916,43.8062041,920.8846653827306 44.4147868,43.8065128,923.5207727550678 44.4166392,43.8068209,921.6887965742535 44.4185167,43.8071322,920.2749387033846 44.4203747,43.8074433,925.7359936223958 44.4222441,43.807755,925.0050991643243 44.4241189,43.8080657,925.6142243496208 44.4259692,43.8083736,921.0012328585345 44.4278214,43.8086859,920.3782614034577 44.4296713,43.8089918,925.7082601479406 44.4315268,43.8093012,922.4032925212107 44.4333801,43.8096089,923.4503092133988 44.4352343,43.8099153,921.6913249820914 44.437115,43.8102293,921.5354778307493 44.4389758,43.8105418,922.5865379983152 44.4408209,43.8108491,920.5865131951748 44.4426584,43.8111563,921.2924537160884 44.4445234,43.8114662,924.5715214423593 44.4463638,43.8117733,923.4394721976705 44.4481986,43.8120781,922.3273906911899 44.4500744,43.8123897,921.3925073334781 44.4519258,43.8126974,919.5455047302531 44.4537783,43.8130067,918.584510465714 44.4556521,43.8133185,918.0106155848059 44.4575406,43.8136351,923.4027977798384 44.4593767,43.8139384,927.0447110972525 44.4612413,43.8142507,925.3707740226617 44.4631175,43.8145671,924.0978984042232 44.464984,43.8148737,923.0849510207801 44.4668589,43.8151826,923.3970459141423 44.4687168,43.8154954,917.8280764774694 44.4706026,43.815809,923.4772303329568 44.4724703,43.8161194,923.1452946653563 44.4743082,43.8164285,923.2642237490269 44.4761548,43.8167339,928.0881792198646 44.4779967,43.8170421,926.8411210535413 44.4798412,43.8173468,920.218063165445 44.4817127,43.8176626,922.3351540436144 44.4835987,43.8179724,924.3342900862951 44.4854396,43.8182821,924.6412274341012 44.4873126,43.8185929,920.1393072349371 44.489174,43.8189013,919.3873283404549 44.4910431,43.8192118,917.9303880022446 44.4929089,43.8195259,922.5324423665052 44.4947579,43.8198351,926.4534081992747 44.4966415,43.820151,928.8585432780482 44.4985098,43.8204653,920.6736057710945 44.5003813,43.8207697,921.1796156125536 44.5022438,43.8210764,913.8084472389886 44.5040877,43.821387,917.7722109961472 44.5059587,43.8216949,920.7110834640323 44.5078222,43.8220073,922.019937222641 44.509663,43.8223179,921.6806893837764 44.5115257,43.8226268,919.5305308758602 44.5107128,43.8259975,926.0686459620887 44.5088788,43.8256737,927.5098819279908 44.5070438,43.8253677,921.2881648000025 44.5051638,43.8250571,916.8062427143294 44.5033103,43.8247485,920.6234401831805 44.5014338,43.8244349,923.3635256558846 44.4995833,43.8241267,925.3766993330521 44.4977381,43.8238171,926.0807580162225 44.4959007,43.8235075,926.054849684123 44.4940568,43.8232019,930.0009232393908 44.4922072,43.8228905,934.9589542882449 44.4903357,43.8225842,932.2799030524648 44.4884742,43.8222688,934.9888684775055 44.486598,43.821961,928.5167902044691 44.4847364,43.8216515,922.4477697894421 44.4828602,43.8213402,915.7766793024896 44.481026,43.8210332,914.6747836005794 44.4791812,43.820726,917.6108399012309 44.4773193,43.8204155,921.2458109019176 44.4754443,43.8201015,922.8637134877473 44.4735786,43.8197918,925.2756679331819 44.4717107,43.819481,924.8476084940992 44.4698398,43.819177,930.8195543284692 44.4679773,43.8188596,938.6994973435004 44.4661221,43.8185488,936.0584901138158 44.464258,43.8182392,925.705446293267 44.4624224,43.8179343,916.8625395636336 44.460577,43.8176219,915.7875672998372 44.4586933,43.8173106,927.9794295196106 44.4568137,43.8170004,935.0913117233996 44.4549352,43.8166914,922.6812010812185 44.4530972,43.816379,916.5632567545229 44.4512106,43.8160754,916.772124027956 44.4493609,43.8157532,913.5470979795554 44.4474896,43.8154453,920.6920175725259 44.4456453,43.8151411,924.8890649519502 44.4437617,43.8148265,922.7579091108687 44.4418859,43.8145139,922.1627920725466 44.4400346,43.8142043,924.1897898710699 44.4381911,43.8138987,923.714832320024 44.4363195,43.8135845,922.7547256890422 44.4344612,43.8132742,925.5856874945334 44.4325976,43.812964,928.2866252717251 44.4307139,43.8126489,926.8964596620323 44.4288509,43.8123385,924.2983972510435 44.4269957,43.8120314,923.0343775005776 44.4251267,43.8117194,923.4362819337459 44.4232626,43.8114099,921.586213998618 44.4214293,43.8111026,924.6462863150916 44.4195841,43.8107975,923.985311826253 44.417723,43.8104865,922.44124936185 44.4158557,43.8101727,923.6971504381318 44.4139877,43.8098659,925.0360677796004 44.412154,43.8095586,921.7991328893846 44.4102783,43.8092447,922.448993513792 44.4084033,43.8089333,923.4478633959682 44.4065371,43.8086244,924.1357780581774 44.4046843,43.8083146,924.7897477210425 44.402834,43.8080048,923.954727242621 44.400996,43.807698,924.2847683994803 44.3991464,43.8073961,921.2937719991785 44.3972795,43.8070809,923.638659579445 44.3953944,43.8067669,922.0834697422092 44.3935224,43.8064559,926.2253450491884 44.3916448,43.8061415,921.4951846665224 44.3897841,43.8058229,925.6620849083175 44.3879323,43.8055218,918.4280746364088 44.3860912,43.8052195,920.7111066955023 44.3842091,43.8049054,924.0949229838536 44.3823526,43.8045931,924.3238557748219 44.3804799,43.8042802,924.7817145959348 44.3786271,43.8039755,923.4526838604454 44.3767021,43.8071551,931.5866430276521 44.3785383,43.8074582,931.6575911518249 44.3804265,43.8077613,929.6137662039733 44.3823044,43.8080744,931.3479245292986 44.384151,43.8083791,930.3169197179417 44.3860037,43.8086938,925.6119700609916 44.3878841,43.8090028,923.0491239019436 44.3897679,43.8093179,925.8273094992172 44.3916439,43.809631,934.1004538832951 44.3935202,43.8099476,928.7716087521201 44.3953747,43.8102505,922.0566266655721 44.3972584,43.810567,917.0448114164677 44.3991434,43.8108782,920.8629851535354 44.4009894,43.811186,923.2119769160687 44.4028749,43.8114963,922.7351479689156 44.4047162,43.8118098,923.2931336537164 44.4065824,43.8121211,924.8502208559084 44.4084203,43.8124294,926.5931742030942 44.4102859,43.8127381,923.9182489524901 44.4121537,43.8130497,923.1183407115466 44.4140188,43.8133618,925.1424209906542 44.4158879,43.8136681,928.7175007272903 44.4177377,43.8139689,929.1494788036888 44.4195842,43.8142688,926.0384387378883 44.4214652,43.8145702,925.5345530234332 44.4233102,43.814874,931.6925156151218 44.4251628,43.8151826,927.2695243759418 44.4270297,43.8154909,923.2405937589955 44.4288893,43.8157871,929.9745948960627 44.4307542,43.8160807,931.3216106144987 44.4326262,43.8163781,926.6716673910405 44.4344849,43.8166785,923.3786736066515 44.4363327,43.8169848,927.1746481717028 44.4381796,43.817293,921.3646232209701 44.4400357,43.8176012,921.0516374282917 44.4418767,43.817905,921.226571736179 44.4437035,43.8182086,923.5264422732319 44.4455428,43.8185075,924.3983528295638 44.4473848,43.8188091,923.224281944376 44.4492062,43.8191133,926.4481274060521 44.4509871,43.8194073,928.233765234932 44.4528641,43.819712,931.4038531843464 44.4547032,43.8200132,930.253764214961 44.456544,43.8203117,925.7886738346258 44.4584132,43.8206142,924.3047180898681 44.4602675,43.8209109,923.6966794246409 44.4621261,43.8212149,924.264679498561 44.4639716,43.8215214,925.5116284095435 44.4657523,43.8218133,926.5392510467402 44.4675188,43.8221082,926.5428192344312 44.4692856,43.8224022,926.7273851505264 44.4710818,43.8227103,925.3711189889575 44.4729345,43.8230198,923.769102676701 44.4747755,43.8233272,922.1070281242781 44.4766205,43.8236366,925.7599756874141 44.4784851,43.8239406,923.6089923396303 44.4803629,43.8242612,924.8581130276261 44.4822196,43.8245728,926.4041146728446 44.4840858,43.8248827,926.2641518503337 44.4859415,43.8251909,925.8551372044169 44.4877884,43.8254995,922.9070841669064 44.4896594,43.8258153,930.3691558046635 44.4915413,43.8261331,933.1772796035709 44.4933867,43.8264445,941.6352246563954 44.4952617,43.8267665,940.6183280009986 44.4971092,43.827075,947.1772717440736 44.4989801,43.8273961,946.4023523468311 44.5008174,43.8277233,945.4452304428922 44.5026531,43.8280398,952.6439815587488 44.504494,43.8283688,953.1167910029059 44.5063377,43.8286952,952.3346056143531 44.5081878,43.8290231,938.3324524481624 44.5085995,43.8326201,928.373443999944 44.5067187,43.8322941,921.9944679284974 44.5048817,43.8319891,920.7937395701709 44.5030215,43.8316773,924.4318931502218 44.5011629,43.8313704,930.9990680523064 44.4992767,43.831048,927.7930211451377 44.4974233,43.8307389,923.1920576463267 44.4955538,43.8304277,925.9580168337342 44.4937157,43.8301232,928.5561309734968 44.4918396,43.8298157,939.3610696869167 44.489967,43.8295021,936.1700051827864 44.4881234,43.8291879,925.7440643956927 44.4862674,43.8288809,919.1480889222535 44.4843885,43.8285673,918.0289935632678 44.4825171,43.8282569,924.8099389512547 44.4806388,43.8279413,927.2258382396136 44.4787617,43.8276303,924.9387547861766 44.4768837,43.8273196,926.5826671413466 44.4750268,43.8270126,925.1536810970198 44.4731917,43.8267067,924.4707922971766 44.4713213,43.826395,928.424731644915 44.4694776,43.8260857,928.105793357443 44.4676381,43.8257791,923.5288800694301 44.4657728,43.8254677,928.6978392261391 44.4639045,43.825157,932.3237861763138 44.4620684,43.8248526,930.2468907877269 44.4602063,43.824543,927.324865780108 44.458346,43.8242303,922.0688386013595 44.4565058,43.8239212,922.2449084977188 44.4546256,43.8236098,924.2907958964887 44.4527651,43.8233016,924.6987774859961 44.4508938,43.8229937,923.3847116455016 44.4490436,43.8226825,925.3047273770013 44.4471715,43.8223755,927.5836584295378 44.4452965,43.8220561,928.2135398360317 44.4434583,43.8217493,926.3106174183 44.4416002,43.8214379,929.9835936047095 44.4397637,43.8211331,928.0276822349614 44.4379078,43.8208256,924.9536771446275 44.436063,43.8205209,922.077727614992 44.4342135,43.8202124,925.3137454229305 44.4323273,43.8198963,928.3285795724875 44.4304657,43.8195862,928.5235375985984 44.4286273,43.8192819,927.8736128508136 44.4267571,43.8189671,942.0795173843923 44.4248841,43.8186533,944.5244114522408 44.4230225,43.8183443,934.0383682464192 44.4211809,43.8180419,929.8674306732674 44.4193085,43.8177289,929.7203263566729 44.4174396,43.8174195,928.3362467376522 44.4155837,43.8171085,922.7002182172179 44.4137063,43.816792,918.472078431658 44.411862,43.8164879,917.812118622109 44.410017,43.8161768,917.9161341875146 44.4081611,43.8158665,921.9951032866306 44.4063188,43.8155646,928.5481554195893 44.4044825,43.81526,927.8572248331681 44.4026264,43.8149499,924.4881903613593 44.4007513,43.8146394,926.963070429362 44.3988919,43.8143316,930.4270260480122 44.3970431,43.8140227,926.5190237475728 44.3951781,43.8137066,927.5399282409803 44.3933428,43.8133992,927.9179872619081 44.3914952,43.8130946,937.7139995762759 44.389657,43.8127822,945.6580290012428 44.3878116,43.8124759,933.6730437684091 44.3859698,43.8121684,921.3460696800822 44.3841118,43.8118643,920.4120335726765 44.3822375,43.8115521,921.3139010520092 44.3803731,43.8112459,920.5078285108685 44.3785328,43.8109362,923.239850119609 44.3766556,43.8106222,923.4166962245303 44.3756166,43.8139516,934.9869965847457 44.3774725,43.8142522,937.4360119029781 44.3793351,43.8145582,928.5680714443973 44.3811741,43.8148616,924.5360188964756 44.3830264,43.8151715,932.8060426871735 44.3848893,43.8154862,935.6841259358295 44.386747,43.8157957,936.5041699659956 44.3886334,43.8161084,919.0523479290299 44.3905116,43.816421,923.2214885798558 44.3923818,43.8167283,926.3885774963536 44.3942363,43.8170424,923.9366166141896 44.3961086,43.8173537,925.0457242633806 44.3979827,43.8176704,926.6618545334379 44.3998392,43.817976,924.9498740773191 44.4017247,43.8182883,923.8520390510422 44.4035652,43.8185959,925.2829922746214 44.4054261,43.8189025,925.670030707019 44.4072796,43.8192177,930.8890608691178 44.4091595,43.8195229,933.6411760911976 44.4110139,43.8198352,926.4821994716071 44.4128624,43.8201443,927.9181865857175 44.4147155,43.8204552,930.2851979750442 44.4165668,43.8207624,929.0791895841328 44.418415,43.82107,926.355167716112 44.420268,43.8213764,925.9231622397998 44.4221123,43.8216887,922.9851348412407 44.4239489,43.8219914,927.1980447161542 44.4258106,43.8223071,933.2551010715501 44.4276638,43.8226085,929.1520775460585 44.4295501,43.8229247,926.1492406283096 44.431432,43.8232383,930.9523757836042 44.4333055,43.8235509,936.5084701988801 44.4351667,43.8238612,936.0085030747244 44.4370104,43.8241617,929.5684299631856 44.438861,43.8244754,927.5844241934213 44.4407104,43.824784,923.3773972929085 44.442568,43.8250966,921.130416694014 44.4444262,43.8254012,920.0454144539602 44.4463099,43.8257191,920.6125609514088 44.4481525,43.8260217,924.2914826016871 44.4500363,43.8263422,929.3816347852271 44.451891,43.8266487,937.835618340616 44.4537637,43.8269624,937.2027001623505 44.4556248,43.8272742,936.4587247357566 44.4574877,43.8275782,928.8027335826034 44.4593392,43.8278935,925.0537241115438 44.461216,43.8281999,922.6367983447248 44.4630702,43.8285095,930.1977820345278 44.4649361,43.8288181,928.0258128111776 44.4667999,43.8291305,926.1078442308925 44.4686689,43.8294413,918.1218926319818 44.4705089,43.8297476,920.1308004706685 44.4723714,43.8300586,920.2248188707545 44.4742283,43.8303708,926.0528151644605 44.4760749,43.8306797,926.5347559630948 44.477957,43.8309932,924.6458636877833 44.4798274,43.8313011,926.2879032323871 44.4816956,43.8316128,925.7349429344029 44.483552,43.8319191,922.1139146331425 44.4854,43.8322298,920.6308611648768 44.4872469,43.8325378,922.6807940963045 44.4890825,43.8328441,925.6186718164433 44.4909179,43.8331491,928.5815438817035 44.4927791,43.8334603,925.0645450081411 44.494665,43.8337748,925.3196620930157 44.4965263,43.8340842,927.1326562999541 44.4983712,43.8343928,925.134575640633 44.5002414,43.8347036,924.7115915747755 44.5021104,43.8350129,924.9724708493876 44.4410932,43.8283575,927.1914202659977 44.4392328,43.8280438,928.1813908270752 44.4373975,43.8277382,934.7034933294389 44.4355243,43.827426,936.7134101437263 44.4336423,43.8271115,941.2962807361122 44.4317919,43.826804,934.4023085047158 44.4299427,43.826491,926.2473244308169 44.4280801,43.8261831,922.8202955656964 44.4262453,43.8258731,932.7983808938194 44.4243963,43.8255675,926.3724159272957 44.4225263,43.825256,918.5603409583365 44.4206546,43.8249453,920.9332597782144 44.418794,43.8246347,924.0112262620303 44.4169521,43.8243227,928.821269242391 44.4150772,43.8240097,930.4161640225132 44.4131991,43.8236994,930.1690515872795 44.4113319,43.8233903,928.1879891713211 44.409492,43.8230807,929.6750434804758 44.407657,43.8227743,928.4181274812976 44.4058011,43.8224655,928.5801120275723 44.4039656,43.8221587,928.2051905007609 44.4020822,43.8218405,929.6660250731625 44.4002239,43.8215321,932.3329969862043 44.398351,43.8212217,930.8828980979999 44.396474,43.8209072,929.1757681172357 44.3946364,43.8206014,928.7438348569623 44.3927971,43.8202944,928.9308895529924 44.390928,43.8199808,929.8437934199849 44.3890893,43.8196739,930.1378488457799 44.3872048,43.819361,924.3046851963525 44.3853312,43.8190468,925.9905642531518 44.3834602,43.8187414,925.8564795286474 44.3816219,43.8184299,936.2525187294834 44.3797695,43.8181196,932.7884986954251 44.3779136,43.8178086,927.2724601755485 44.3760407,43.8174942,929.5883361084345 44.386614,43.831181,935.3249567973113 44.384745,43.8308569,933.1358477915292 44.3829024,43.8305456,931.4948905885926 44.381061,43.8302379,932.2009481549645 44.3792136,43.8299306,934.0849796362469 44.3773493,43.829618,934.5249206072953 44.3701091,43.8319102,936.6941231860134 44.3719727,43.832214,936.5131511589844 44.3738097,43.8325121,937.3790451695864 44.3756708,43.8328245,932.4420855356724 44.3775083,43.8331292,933.1939991115465 44.379393,43.8334458,936.5621525736966 44.3812319,43.8337528,936.2930768624886 44.3831069,43.8340688,931.2221840081394 44.3849769,43.8343786,928.2372499286198 44.3868111,43.8346872,927.6111551569717 44.3867517,43.8381785,936.6821911106126 44.3849173,43.8378647,933.3492757986343 44.3830624,43.8375549,935.2572818934793 44.3812108,43.8372431,933.0662953525324 44.3793749,43.8369326,935.8383799434255 44.3775394,43.8366273,941.647480561889 44.3757002,43.8363174,940.7665503701343 44.3738367,43.8360071,938.8855120139771 44.3720023,43.8356984,937.01660409817 44.3701593,43.8353905,945.6566599878016 44.3682852,43.8350728,947.3175501729639 44.3667907,43.8383342,932.1187160954702 44.368656,43.8386394,928.7217450992194 44.3705008,43.8389402,920.8626706973579 44.3723735,43.83925,922.2017433785201 44.3742418,43.8395596,930.2767951959252 44.3761026,43.8398725,926.3978230143183 44.3779434,43.8401833,939.5257564362959 44.3798196,43.8404943,937.4948434515248 44.3816995,43.8408126,929.6269670129469 44.3835406,43.8411192,927.565886011866 44.385383,43.8414281,936.2698163699562 44.3847236,43.8448195,933.7459533965854 44.382862,43.8444935,929.3958948484188 44.3809896,43.8441809,926.4518277463181 44.379132,43.84387,934.8198289239936 44.3772815,43.8435587,930.653858695993 44.3753964,43.8432468,930.3157350594897 44.3735468,43.8429398,933.6827792577126 44.3716855,43.8426281,931.965757531204 44.369827,43.8423241,932.2467697048666 44.3679575,43.8420173,936.9567246185618 44.3660757,43.8416987,938.1425898728402 44.3654494,43.8450818,939.1419092287096 44.3673431,43.8454,932.2970886135296 44.3692222,43.8457034,927.5901594689003 44.3711018,43.8460174,927.3742628192276 44.3729459,43.8463254,925.6071929275239 44.37482,43.8466369,927.9752627228563 44.3767027,43.8469507,931.1073755851613 44.3785626,43.847263,935.9763837752027 44.3804202,43.8475763,936.9593838082612 44.3822606,43.8478842,936.7902920258985</ns0:coordinates>
          </ns0:LineString>
        </ns0:Placemark>
      </ns0:Folder>
    </Folder><Folder name="20628"><name>20628</name><ns0:Folder>
        <ns0:name>2023_07_02_Nadir_g201b20628_f001_</ns0:name>
        <ns0:Placemark>
          <ns0:name>Область съемки</ns0:name>
          <ns0:styleUrl>#style_zone</ns0:styleUrl>
          <ns0:Polygon>
            <ns0:outerBoundaryIs>
              <ns0:LinearRing>
                <ns0:coordinates>42.846986390622604,44.20694528638343,0.0 42.84677584901376,44.20691002621427,480.77560486178845 42.84654989403865,44.207513168551976,0.0 42.84555400502257,44.207396747021264,468.0653605638072 42.84547891374723,44.20784020027075,0.0 42.84473935765751,44.207769275818,469.0859912838787 42.84463500517342,44.21069670158116,508.39214001689106 42.845068841275705,44.21070383491947,0.0 42.845093858265585,44.21136260267233,527.5598401334137 42.84515815849327,44.21136291097642,0.0 42.845309579219546,44.21369114312881,540.7286873087287 42.848167632697205,44.21358152773603,0.0 42.84818034315336,44.213642256491674,525.7373622274026 42.84913548416582,44.213544407570254,0.0 42.84917890052097,44.213542742415676,0.0 42.849099701040224,44.21425502056962,513.4449851503596 42.849190070064914,44.214253561732235,0.0 42.849144697196635,44.21487764024493,0.0 42.849139416264705,44.214877661190066,505.3316558394581 42.84886566423365,44.21784542171464,474.93241939134896 42.84896413559645,44.21784628936019,0.0 42.848906747659036,44.21843556766776,465.5104899555445 42.84891577388266,44.21843556010995,0.0 42.84886016646716,44.21896567626343,456.5516558056697 42.84893805631965,44.2189655597232,0.0 42.84889545491585,44.219443375498706,453.153286319226 42.850837042267365,44.219452211775575,0.0 42.85085062050795,44.21985840976692,431.8442613258958 42.85108105420759,44.21984738599494,0.0 42.851136866077745,44.220439213245804,435.09276009351015 42.85118131548762,44.22043645469006,0.0 42.85127297492017,44.221154314363915,426.80575879104435 42.851875215360764,44.22110193325139,0.0 42.85200741822818,44.22165225810647,427.232721908018 42.85260364535057,44.221587982439374,0.0 42.852589517755085,44.22179552941151,425.9984758896753 42.85531027029795,44.22178724419127,0.0 42.85531173509417,44.221801547388765,417.3889648495242 42.85554344717056,44.22178653412238,0.0 42.856566510021494,44.22178341869718,0.0 42.856565006510436,44.22180028761801,417.05727083981037 42.863925723663414,44.22174899464318,429.05737252905965 42.86390568044194,44.221464304798275,0.0 42.86774884298448,44.221361640751226,457.57544168736786 42.86772691498595,44.220887797563435,0.0 42.867882341991184,44.220885162350186,452.5450028600171 42.86787778588729,44.2208082455128,0.0 42.87220186305453,44.22073988847017,452.7488162647933 42.87204435275153,44.21921328276941,0.0 42.87223450184961,44.21921010400266,466.2174515193328 42.87192546954266,44.215769245790796,487.62460211478174 42.87188318666465,44.215769445129666,0.0 42.8718566545978,44.21548404640312,0.0 42.87192724757615,44.21548323417536,485.1866867141798 42.87187441656421,44.214939587157616,0.0 42.8719623331409,44.21493902822037,485.8663495397195 42.871708353418775,44.21270004676747,0.0 42.871722580023615,44.21269981559246,506.2342487676069 42.87165838932915,44.21225958376895,0.0 42.871649861298636,44.21218440413652,0.0 42.87175358875474,44.212183265335355,507.1739280875772 42.8716749921882,44.21170320450391,0.0 42.871755752711834,44.21170245378358,519.6848048549145 42.87157516841078,44.2106063676441,0.0 42.87160701310492,44.210605550968424,534.6583950193599 42.87150418453535,44.21003882237547,0.0 42.87155180330903,44.21003765082912,542.0220087273046 42.871229901032606,44.20827171079069,0.0 42.871255747608984,44.208270799409625,581.539600757882 42.87117326253633,44.20776171727599,0.0 42.87124947586567,44.20775887862622,581.9813698669896 42.871148304982825,44.2072177668333,0.0 42.87128505733181,44.207213015942266,592.3823337322101 42.87107009053086,44.20612086435283,0.0 42.8710842203521,44.20612016705244,605.9465050436556 42.87098820536482,44.20559934575175,0.0 42.87105069101233,44.20559621303261,616.3032499505207 42.870839512931,44.20447310982181,0.0 42.87083849184702,44.204465587052056,0.0 42.87094986625243,44.204459899277055,645.4367873976007 42.87089502995142,44.20398527591037,0.0 42.87091814864226,44.203984476942466,646.3676483761519 42.87088401794841,44.20357928711669,0.0 42.87101074457765,44.20357584541543,656.6638538436964 42.87085494953091,44.20123748961374,664.6041135201231 42.86889874936989,44.20118332538876,0.0 42.86893184481195,44.200730658483806,631.3159283204004 42.863602614008464,44.200467185447565,577.1826229449362 42.863605280549244,44.20054470951776,0.0 42.859217316064004,44.20033084449305,521.4197194986045 42.859271529556466,44.2008356588933,0.0 42.859213994397145,44.200832473500284,522.1900740889832 42.85931354885219,44.201883003504015,0.0 42.85832866016728,44.20192225036035,538.7450923090801 42.858331903410146,44.2022114765614,0.0 42.855159052868196,44.2021009080679,519.0757738454267 42.85519558917526,44.20328299698511,0.0 42.854117558430886,44.20329034657873,498.5055351871997 42.8541226236251,44.20357115158526,0.0 42.850657393022516,44.20340345226974,473.3977524228394 42.850824518044604,44.20497960503587,0.0 42.85062192740343,44.20497830517076,482.7881745714694 42.85060393631044,44.20533673102986,0.0 42.8495425328136,44.20523706293413,475.8176679108292 42.84948173632703,44.20572644257908,0.0 42.84687800612825,44.20566994648589,466.2116867331788 42.84700657219582,44.206774513386236,0.0 42.84695823319006,44.20677404404205,480.68539209105074 42.846986390622604,44.20694528638343,0.0</ns0:coordinates>
              </ns0:LinearRing>
            </ns0:outerBoundaryIs>
          </ns0:Polygon>
        </ns0:Placemark>
        <ns0:Placemark>
          <ns0:name>Трек аэрофотосъемки</ns0:name>
          <ns0:visibility>true</ns0:visibility>
          <ns0:description>&lt;table border = "1" cellpadding = "2"&gt;&lt;tr&gt;&lt;td&gt;Номер полета&lt;/td&gt;&lt;td&gt;001&lt;/td&gt;&lt;/tr&gt;&lt;tr&gt;&lt;td&gt;Номер борта&lt;/td&gt;&lt;td&gt;20628&lt;/td&gt;&lt;/tr&gt;&lt;tr&gt;&lt;td&gt;Дата&lt;/td&gt;&lt;td&gt;02.07.2023&lt;/td&gt;&lt;/tr&gt;&lt;tr&gt;&lt;td&gt;Время&lt;/td&gt;&lt;td&gt;06:09:04&lt;/td&gt;&lt;/tr&gt;&lt;/table&gt;</ns0:description>
          <ns0:LineString>
            <ns0:altitudeMode>absolute</ns0:altitudeMode>
            <ns0:coordinates>42.8924203,44.2554551,427.85012658181836 42.8480587,44.2083759,947.2683770866802 42.848049,44.2089013,946.5562940517876 42.8480718,44.2094125,944.2792833214996 42.8480543,44.209922,943.4039999900897 42.8480556,44.2104381,941.9258988489505 42.8480538,44.2109497,941.0707353430367 42.848054,44.2114901,941.5748574714479 42.8480499,44.2120142,942.7187977960941 42.8501193,44.2122757,956.8644339954587 42.8500846,44.2117396,959.123135511806 42.8500822,44.2112193,958.7661920561691 42.8500785,44.2107025,958.1982734764958 42.85008,44.2101923,958.3574504896013 42.8500767,44.2096516,958.1253080682224 42.8500772,44.2091489,956.5865497565063 42.8500782,44.2086443,955.4817766323528 42.8500779,44.208142,955.8250170183354 42.8501087,44.2076207,955.9302754881902 42.8521209,44.2063374,970.4009397211374 42.8521286,44.2068597,970.2619336895606 42.8521256,44.2073775,967.4908168926429 42.8521229,44.2078963,964.8857114800451 42.8521457,44.2084156,960.5527731527059 42.8521208,44.2089452,960.8406286619613 42.852145,44.2094504,959.3295657048953 42.8521166,44.2099602,961.1282115387406 42.8521448,44.2104697,961.8842146943418 42.8521124,44.210979,962.5228304101577 42.852111,44.2114911,962.8526698671589 42.85211,44.2120058,962.901536486545 42.8521098,44.2125444,962.8246344703558 42.8521434,44.2130659,963.6507854190639 42.8521087,44.2135885,962.8365126123344 42.8521072,44.2140903,963.1812539289533 42.8521442,44.2146124,965.0704320552312 42.8521063,44.2151287,963.6840793851919 42.8521045,44.2156313,963.6088263777726 42.8521021,44.2161366,963.4535951264465 42.8521018,44.2166429,963.3473866815017 42.8521007,44.2171483,963.2641646376577 42.8520993,44.2176537,963.3839406919421 42.8541849,44.2199693,963.942091786591 42.854146,44.2194333,964.4987726950395 42.8541422,44.2189138,964.4388323613359 42.854139,44.2183999,964.446948821853 42.8541383,44.2178901,964.5291199424303 42.8541381,44.2173841,964.78133019634 42.8541393,44.2168417,965.1142048708746 42.8541656,44.2163226,962.654459431281 42.85414,44.2158035,963.9883844249008 42.8541679,44.2152837,962.2616425820589 42.8541408,44.2147726,963.8716337000053 42.8541684,44.2142583,962.5349420598607 42.8541429,44.213753,964.2029981768083 42.8541694,44.213244,963.2933497609702 42.8541456,44.2127026,965.154075005011 42.8541455,44.2121829,965.1981562520391 42.8541458,44.2116624,964.997232472046 42.8541475,44.2111401,964.8943005637854 42.8541481,44.2106189,964.9223720708211 42.8541496,44.2100963,964.4324360571385 42.8541517,44.209576,964.3365256309072 42.8541509,44.2090571,964.0626099989579 42.8541493,44.2085386,963.832693057637 42.8541517,44.2080243,964.8098413282685 42.8541496,44.2074856,965.3457300401287 42.8541508,44.2069755,965.0119104190768 42.8541517,44.206464,963.7850756406953 42.8541515,44.2059472,962.8441836996143 42.8541523,44.2054271,962.2352669017097 42.856186,44.2044799,978.2022673944643 42.8561906,44.2049838,977.5380631703584 42.8561818,44.2055067,974.9859532676585 42.8561678,44.2060271,972.3297866045895 42.8561623,44.206531,972.115518043559 42.8561586,44.2070417,971.4213252814116 42.8561539,44.2075547,972.3821479149939 42.8561535,44.2080714,972.3870329366914 42.8561535,44.2085908,972.8369460455455 42.8562018,44.2090938,972.630011457108 42.8561535,44.2096051,972.9355405128356 42.8562014,44.2101175,973.6866921928579 42.8561509,44.2106291,973.4502101934551 42.856202,44.2111454,973.4374190193568 42.8561521,44.2116638,972.6950052657229 42.8561536,44.2122046,972.5001303409688 42.8561548,44.2127086,972.5479054071062 42.8561554,44.2132141,972.2956908456121 42.8561558,44.2137212,972.387490146477 42.8561563,44.2142279,972.8422862982608 42.8561569,44.2147342,973.0620793006484 42.856157,44.2152428,973.0828908817673 42.8561564,44.2157523,973.2137065300838 42.8561563,44.2162642,973.0825480568276 42.856157,44.2167773,973.2804060141009 42.8561576,44.2172894,973.5282538758843 42.8561574,44.2178021,973.5151023343269 42.8561564,44.2183146,973.6089438246329 42.8561552,44.2188267,973.527780264424 42.8561546,44.2193397,973.4966290263154 42.8561562,44.2198519,973.7164841760851 42.8582352,44.2200567,985.1596070236535 42.858203,44.2195099,986.7942328422039 42.8582026,44.2189845,986.4592626800998 42.8582035,44.2184657,986.3013631689905 42.8582042,44.2179518,985.9945087196722 42.8582035,44.2174428,985.7176917142197 42.8582042,44.216938,985.5999233063015 42.8582054,44.2163962,985.6348082422508 42.8582279,44.2158743,983.6010166099219 42.8582072,44.2153629,985.4710498939029 42.8582275,44.2148464,983.5602953913875 42.8582087,44.2143384,985.225372850382 42.8582277,44.2138251,983.6106403865475 42.8582127,44.2133203,984.5437722154942 42.8582295,44.2128085,982.6620399922945 42.8582149,44.2123047,984.2671837896895 42.8582149,44.2117796,984.2142190148691 42.8582305,44.2112698,982.7464981249351 42.8582313,44.2107446,983.2335375109859 42.8582324,44.2102221,983.3196043357747 42.8582332,44.2097024,983.3766957274566 42.8582322,44.2091827,983.2217756640483 42.8582328,44.2086629,982.7638648385599 42.8582318,44.2081445,982.8069570638983 42.8582333,44.2076285,982.8940878991236 42.8582334,44.2071096,982.4151824015443 42.8582352,44.2065907,982.2632877336762 42.8582319,44.2060702,981.9823454478989 42.8582322,44.2055497,982.3284260958201 42.858234,44.2050339,982.8505607426042 42.8582339,44.2045206,982.7017069186899 42.8582352,44.2040058,982.1418478381864 42.8602477,44.2028736,985.7869788045953 42.8602607,44.2033765,986.7378144546726 42.8602538,44.2038963,983.9826829128876 42.860247,44.2044109,983.0445028799361 42.8602628,44.20493,980.2345094363436 42.8602373,44.2054489,981.6062508773902 42.8602362,44.2059622,981.276094916235 42.8602336,44.2064823,981.2709936664883 42.8602627,44.2069914,980.1329903762671 42.8602316,44.2074968,981.3705686791416 42.8602618,44.208014,980.2516488840245 42.8602311,44.2085257,982.0222893400384 42.8602289,44.2090615,982.585339032111 42.8602634,44.2095807,981.8904654084428 42.8602264,44.210095,983.2310904477433 42.8602259,44.2105989,983.4538494891538 42.8602255,44.2111194,983.5427660498366 42.8602239,44.2116423,983.2436976614013 42.860222,44.2121476,983.1864610358442 42.8602209,44.2126556,982.3312550174261 42.8602218,44.2131647,982.2280721103847 42.8602215,44.2136747,982.3818900804322 42.8602213,44.2141862,983.0657228626754 42.8602204,44.2146989,983.9555625388339 42.8602204,44.2152077,984.5943710761437 42.860219,44.2157175,984.6451801723643 42.8602191,44.2162288,984.3660129730414 42.860217,44.2167429,983.8098582674047 42.8602164,44.217258,983.6797225391672 42.8602165,44.2177727,983.6195874748377 42.8602165,44.2182853,983.6474319291237 42.8602178,44.218796,983.4352666753609 42.8602164,44.2193107,982.9681220934623 42.8602178,44.2198252,983.0889933841487 42.8622931,44.219788,986.5448051142055 42.8622938,44.2192603,986.1168246736656 42.8622918,44.2187354,985.7928535530774 42.8622903,44.218216,985.413937556582 42.862264,44.2176923,989.1848235265962 42.8622643,44.2171844,988.9670275583552 42.8622646,44.2166801,989.1472655981107 42.8622662,44.2161807,989.2195581817391 42.8622877,44.2156527,985.9157069929819 42.8622675,44.21515,989.5398299465401 42.8622876,44.2146303,986.7020483157496 42.862271,44.2141281,989.5361988260966 42.8622888,44.2136083,986.2904016790717 42.862273,44.2131037,988.6765345692429 42.8622901,44.2125922,985.6028114172539 42.8622749,44.2120569,988.487658084137 42.8622739,44.2115348,987.8907197230781 42.8622754,44.2110115,987.8247859268204 42.8622754,44.2104904,988.0678633727791 42.8622757,44.2099682,987.6409323366039 42.8622776,44.2094467,987.8490180965678 42.862279,44.2089251,987.57709973329 42.8622782,44.2084086,987.7242155436572 42.8622771,44.2078938,986.8463455010183 42.8622795,44.2073784,986.8304920784294 42.8622792,44.2068604,987.0175969019348 42.862278,44.2063442,987.1897129946977 42.8622772,44.2058274,987.2428259657571 42.8622774,44.2053101,987.7539405848188 42.8622755,44.2047934,987.9860474867261 42.862276,44.204275,988.0601536258081 42.8622767,44.2037587,988.2762808787809 42.862277,44.2032414,988.012396135891 42.8622773,44.2027238,988.0965085597078 42.8622785,44.2022065,988.1326295595787 42.8642996,44.2020792,994.5613209868051 42.8643021,44.2025919,993.166177978405 42.8643246,44.2030945,987.9430671492527 42.8642884,44.2035996,989.1886055771487 42.864286,44.2041319,988.2316164018873 42.864284,44.2046408,987.5094088320907 42.8642836,44.205156,987.2442709502175 42.8642832,44.2056785,987.3082019979255 42.8642842,44.2061833,987.4159748375328 42.864283,44.2066897,987.937748768511 42.8642831,44.2072212,987.8627679832668 42.8642816,44.2077364,988.1716230998059 42.864281,44.2082523,988.4324905593197 42.8642793,44.2087723,988.3683897312089 42.8642783,44.2092928,988.5232980831966 42.8643237,44.2098005,988.3693808476025 42.8642773,44.2103104,989.1629002062782 42.8642765,44.2108165,989.3746738667345 42.8642757,44.2113392,990.0756042711637 42.8642768,44.2118623,990.0805505369759 42.864323,44.2123605,988.0835484459617 42.8642778,44.2128768,989.7821361118599 42.8643229,44.2133781,987.9451562013679 42.8643223,44.2138893,988.6249792452194 42.8642793,44.214404,990.7275659268026 42.8643218,44.2148998,988.8785174215323 42.8642782,44.2154176,990.6471296540012 42.8643221,44.2159208,988.4671598238775 42.8642788,44.2164418,989.9738042689183 42.8642793,44.2169555,989.655657952844 42.8642786,44.2174681,989.3984936319736 42.8642793,44.2180017,990.3295364861165 42.8642817,44.2185157,990.1994050570008 42.8642816,44.2190311,989.9922709809199 42.8642805,44.219542,990.5740880713755 42.8663529,44.219249,1003.650468705498 42.8663413,44.2187275,1006.3924731932728 42.8663379,44.2182192,1005.8686542759872 42.8663375,44.2177165,1005.9069072458971 42.8663351,44.2171773,1005.9158030307406 42.8663334,44.2166428,1006.0937476135002 42.8663486,44.2161287,1002.9039920509372 42.866331,44.2155904,1007.0907997906094 42.8663298,44.2150705,1007.4418853348382 42.8663282,44.2145484,1007.1899475712954 42.8663289,44.214026,1006.970021588965 42.8663297,44.213504,1006.500100018961 42.8663301,44.2129811,1005.7321674136649 42.8663312,44.2124634,1005.9622883376616 42.8663312,44.2119498,1006.1294409648866 42.8663314,44.2114371,1006.5476033583817 42.8663331,44.2109251,1006.8577819008383 42.8663331,44.2104118,1006.8579373615012 42.8663327,44.2098966,1006.6620723445465 42.8663338,44.2093805,1006.5242083792414 42.8663338,44.2088639,1006.4383326951668 42.8663344,44.2083476,1006.4414636624822 42.8663353,44.2078307,1006.471590878586 42.8663358,44.2073144,1006.797721211923 42.8663356,44.206799,1006.9948555816517 42.8663341,44.2062829,1006.9399750621249 42.8663327,44.2057657,1006.9830847947474 42.8663323,44.2052487,1006.9532027850465 42.8663317,44.2047295,1006.5992987359876 42.8663334,44.2042106,1006.3924121800987 42.8663333,44.2036923,1005.9325198133174 42.8663346,44.2031751,1005.871646756504 42.8663347,44.2026595,1005.88378114916 42.8663369,44.2021439,1006.1549289390658 42.8683646,44.2021351,1029.3887817162645 42.8683655,44.202666,1028.1197958621601 42.8683611,44.2031696,1025.6845186631274 42.8683556,44.2036773,1023.7882731379806 42.8683539,44.2041812,1022.6070160020405 42.868353,44.2046938,1022.1068460433523 42.8683535,44.2052325,1021.7379312318475 42.8683795,44.2057256,1018.9457487251765 42.8683546,44.2062313,1021.7543607441206 42.8683542,44.2067449,1021.8142034073333 42.8683527,44.20728,1021.7932418928756 42.8683519,44.207818,1021.5883121972794 42.8683527,44.2083391,1021.3972332583988 42.8683527,44.2088611,1021.4311577157712 42.8683521,44.2094026,1022.0152623140928 42.8683519,44.2099079,1022.4280279545168 42.8683512,44.2104134,1022.8227923009571 42.8683518,44.2109189,1022.8375649185446 42.8683527,44.2114446,1022.3455300062344 42.8683533,44.2119739,1022.112527145996 42.8683544,44.2124846,1022.0293519943282 42.8683554,44.2130161,1022.1913724280982 42.8683557,44.213548,1022.238392184111 42.8683552,44.2140798,1022.3684059123066 42.8683558,44.2145912,1022.4872341806503 42.8683564,44.2151193,1022.6122199924895 42.8683555,44.215628,1022.5730132597116 42.8683539,44.2161384,1022.5128181210341 42.8683537,44.216669,1022.5808224381234 42.8683822,44.2171685,1020.3497155596147 42.8683543,44.2176929,1022.6024855391474 42.8683541,44.2182044,1022.7543096704137 42.8683824,44.2187049,1020.0862108652162</ns0:coordinates>
          </ns0:LineString>
        </ns0:Placemark>
      </ns0:Folder>
    <ns0:Folder>
        <ns0:name>2023_07_02_Nadir_g201b20628_f002_</ns0:name>
        <ns0:Placemark>
          <ns0:name>Область съемки</ns0:name>
          <ns0:styleUrl>#style_zone</ns0:styleUrl>
          <ns0:Polygon>
            <ns0:outerBoundaryIs>
              <ns0:LinearRing>
                <ns0:coordinates>42.86530987090612,44.23388635923078,0.0 42.863696035124114,44.23569413141391,373.7280198018998 42.86755420857147,44.23783332752353,361.4600895931944 42.86884877939978,44.23500759175734,0.0 42.87076076634032,44.235063210491205,369.8065271312371 42.870758623732975,44.234945056657864,0.0 42.8708108151033,44.23494480060284,0.0 42.87080892834558,44.235052519183874,370.92826095130295 42.87449788077372,44.23514606138599,364.9320974526927 42.87447878224434,44.23487237065185,0.0 42.875240603186064,44.23488180485606,0.0 42.875539207161076,44.234901617627166,0.0 42.87553972567098,44.23510843822851,364.11182699911296 42.87932948396654,44.23524061168808,358.7866203356534 42.879312590543904,44.23508347780198,0.0 42.880383956541024,44.235076304285904,366.26134900469333 42.88036946763016,44.234994502209744,0.0 42.88264469832007,44.23502285753877,362.2853104081005 42.8826326934089,44.23494282224936,0.0 42.88446904368593,44.2351009836433,363.32211128342897 42.88446365151964,44.23496190458114,0.0 42.88447478923053,44.234962940146445,0.0 42.88447542598916,44.23518207569035,364.3092661332339 42.88826653237829,44.23519256792103,362.3856029305607 42.88822906854869,44.2347647653194,0.0 42.88867489668495,44.23476458235905,0.0 42.88869081692756,44.23502775833513,363.54336602333933 42.8924129563311,44.23507411703822,360.0193794686347 42.892399863914974,44.23498187569413,0.0 42.89293238266386,44.234971660823135,0.0 42.89592235672601,44.234975877102336,358.6535527734086 42.895914287075875,44.23491249744968,0.0 42.897059701048526,44.235002729452845,351.37719062622637 42.89711671547971,44.230965008211044,380.5705347880721 42.8969273882992,44.23096634163431,0.0 42.8968230092716,44.22803108856351,395.46759266778827 42.89549172811148,44.228078099000115,0.0 42.89546807994875,44.22794971122196,0.0 42.895466955669384,44.22792568337331,392.12627168931067 42.895463689240266,44.22792587371233,0.0 42.895295430820376,44.22701238521288,401.116526870057 42.89522526059619,44.22701323074237,0.0 42.89522397129672,44.226580322208285,401.2227208390832 42.89440287061842,44.22653249552939,0.0 42.894353890343574,44.22508503936095,396.8843011474237 42.893447356846494,44.22513547589297,0.0 42.8934323516139,44.224943469453386,0.0 42.89348683017049,44.22492457353665,398.4540626136586 42.893420668083856,44.224793967405084,0.0 42.89322447899213,44.22228353854198,419.71562565956265 42.89288563981443,44.22229747195108,0.0 42.892884629964115,44.222207086324204,426.4490908468142 42.89277319418484,44.22220884586474,0.0 42.89269995528373,44.219344952406765,439.76212659757584 42.89238954750489,44.21934777585633,0.0 42.89243271646157,44.2188796754345,436.17287686653435 42.88976871798245,44.21888408487945,0.0 42.88967786977545,44.21770054142791,466.19274855591357 42.88812360085375,44.21775525736838,0.0 42.88488749205187,44.21774153441776,463.2021856568754 42.88487421399891,44.21798912311046,0.0 42.883417595965,44.217976090680004,0.0 42.883419798772245,44.217881622153044,456.3886589454487 42.88286673799836,44.21784600958233,0.0 42.88294138729468,44.21642172701318,465.21629824861884 42.88146154165598,44.21636539394683,0.0 42.881460018741386,44.21626689129956,461.278075424023 42.88050479961572,44.21629024791931,0.0 42.880510082596516,44.2160512503518,453.69838602282107 42.87747329657868,44.21625299457149,0.0 42.875506795883446,44.21632646452509,0.0 42.87550441617051,44.21622982969277,480.7069779327139 42.87306885007002,44.21630459054327,0.0 42.8730698843929,44.21621926236799,480.9702107300982 42.87301053593128,44.21621820091677,0.0 42.87275329485089,44.21490707035995,483.6282372325659 42.872362218534754,44.21493262171042,0.0 42.87236087547737,44.21491717191191,488.8349210433662 42.87161780815892,44.214922869904306,0.0 42.87156810382946,44.21448979346392,489.10309347044677 42.86793721546661,44.2146501550148,471.1591880051419 42.86797202854083,44.21485249366967,0.0 42.86788450493851,44.21484771944459,474.5376867847517 42.86788162955482,44.21487909539409,0.0 42.86581310140853,44.21483233963425,0.0 42.86578612054225,44.214625893760314,479.5993935801089 42.8621369916769,44.21467335235371,477.3312863809988 42.86216920533787,44.21491996249087,0.0 42.86086189728625,44.214873530956716,481.60938809718937 42.860858362254255,44.21501012533737,0.0 42.86076031975911,44.21500485955318,0.0 42.86075985274904,44.21499851712383,475.0637645991519 42.86063955398946,44.21499837332004,0.0 42.85991755246825,44.21495959519438,0.0 42.85990512711373,44.214876971815556,480.39703248627484 42.8587202955798,44.214913425024946,0.0 42.85866588431974,44.21490934787248,0.0 42.858667665270644,44.21486192701778,487.30568635836244 42.855111733429254,44.21459247172855,497.96724985167384 42.855038351879244,44.2154813507395,0.0 42.85466400417537,44.21798867681809,0.0 42.85354966092319,44.21787619966233,459.4881205521524 42.852777220022155,44.222030410909795,419.0297831837088 42.85413868649406,44.222008779029274,0.0 42.85095959829263,44.228742322765356,401.2192800967023 42.854704522661955,44.22916331482929,0.0 42.854081333046025,44.23212634344772,376.81845597643405 42.85429755162498,44.23213797607756,0.0 42.85402802487711,44.23366961339192,373.9614569377154 42.85774128344644,44.23379998315328,367.73077550530434 42.857758711068826,44.23351299246833,0.0 42.859101694135575,44.233605243974765,370.3835990987718 42.85911697412144,44.233414163120266,0.0 42.85990160446238,44.233393370585944,0.0 42.85990140233148,44.23339547450684,373.6373399272561 42.861637114286154,44.233456507739746,0.0 42.861635013958846,44.2335180284293,378.3421550160274 42.86164564625258,44.2335183122598,0.0 42.861609760923955,44.233784647462336,380.2753643132746 42.86530987090612,44.23388635923078,0.0 42.86565121302005,44.233503997663774,0.0 42.86535720997241,44.233833331377404,0.0 42.86536428463122,44.233488159835986,0.0 42.86565121302005,44.233503997663774,0.0</ns0:coordinates>
              </ns0:LinearRing>
            </ns0:outerBoundaryIs>
          </ns0:Polygon>
        </ns0:Placemark>
        <ns0:Placemark>
          <ns0:name>Трек аэрофотосъемки</ns0:name>
          <ns0:visibility>true</ns0:visibility>
          <ns0:description>&lt;table border = "1" cellpadding = "2"&gt;&lt;tr&gt;&lt;td&gt;Номер полета&lt;/td&gt;&lt;td&gt;002&lt;/td&gt;&lt;/tr&gt;&lt;tr&gt;&lt;td&gt;Номер борта&lt;/td&gt;&lt;td&gt;20628&lt;/td&gt;&lt;/tr&gt;&lt;tr&gt;&lt;td&gt;Дата&lt;/td&gt;&lt;td&gt;02.07.2023&lt;/td&gt;&lt;/tr&gt;&lt;tr&gt;&lt;td&gt;Время&lt;/td&gt;&lt;td&gt;09:20:30&lt;/td&gt;&lt;/tr&gt;&lt;/table&gt;</ns0:description>
          <ns0:LineString>
            <ns0:altitudeMode>absolute</ns0:altitudeMode>
            <ns0:coordinates>42.8923431,44.255462,429.1456893678068 42.8672127,44.2327893,770.7286921902411 42.8679115,44.2328836,774.5799953664291 42.8686367,44.232896,777.7096924132029 42.8693547,44.2328966,776.8452326560459 42.8700661,44.2328891,778.1616548291835 42.8707848,44.2328939,776.057239102284 42.8715003,44.2328934,774.1637531866265 42.8722238,44.2328976,772.6523620982596 42.8729476,44.232897,770.6739276554299 42.8736744,44.2328968,767.1525159302361 42.8744064,44.2328968,766.0901389308842 42.875113,44.2329,765.050631659184 42.8758557,44.2329012,767.3023335334018 42.8766156,44.2329014,768.8681346149563 42.8773213,44.232903,772.3166065735135 42.8780619,44.2329056,772.8203083539943 42.8787703,44.2329047,770.412773823172 42.8794923,44.232907,768.6083553007186 42.8802152,44.232901,768.512864359386 42.8809372,44.2329022,769.914435487161 42.8816685,44.2329002,772.4120352464339 42.8823841,44.2328781,776.0093468240293 42.8831068,44.2329008,778.6311245691727 42.8838277,44.2328793,782.6114753257191 42.8845507,44.232877,785.5110198922031 42.8852622,44.2328996,781.9907258624678 42.8859874,44.2329054,781.3243604164327 42.8867051,44.2329002,778.7008442341275 42.8874164,44.2329042,775.0463740740455 42.8881437,44.2329061,773.3099852263543 42.8888711,44.2329069,767.5805866742069 42.8896022,44.2329064,766.3871992806651 42.8903217,44.2329052,764.1377320565061 42.8910331,44.2329056,766.6242286985473 42.8917491,44.2329078,768.1207712842514 42.8924595,44.232887,772.9320626716009 42.8931685,44.2329056,773.0967149375813 42.8938755,44.2329041,773.8261659648138 42.894593,44.2329007,773.7436654892966 42.8949795,44.2314259,778.5692751285603 42.8942591,44.2314111,776.8405843614067 42.8935488,44.2314339,775.1543101100614 42.8928166,44.2314359,774.1807023842197 42.8921082,44.2314353,775.0642206478892 42.8913954,44.231436,773.9177233095477 42.8906878,44.2314309,772.5852043833202 42.8899637,44.2314302,771.6336224956658 42.8892489,44.2314293,772.2540974910582 42.8885044,44.2314252,774.0113547663806 42.8877986,44.2314223,774.0478678325866 42.8870949,44.2314242,775.7974392546823 42.8863599,44.2314249,777.1098016334593 42.8856224,44.231425,778.2781425790464 42.8849165,44.2314197,778.4086324372134 42.8841924,44.2314204,779.0570636855193 42.8834793,44.231428,771.8726293173239 42.8827386,44.2314223,767.1408955060095 42.8820253,44.2314248,763.2094119324133 42.8812921,44.231429,763.7178186172254 42.8805761,44.2314284,771.0332888347655 42.8798353,44.2314182,771.1865120130412 42.8791026,44.231418,770.6128804557875 42.878349,44.2314191,769.3111290750628 42.8776199,44.2314227,768.2605560409901 42.8768949,44.231418,771.3369307709462 42.8761662,44.2314235,769.2503781669418 42.8754368,44.231418,771.6557175465646 42.8747291,44.2314164,770.4842307646618 42.8740116,44.2314138,769.9096726331519 42.8732972,44.2314151,770.9331708335551 42.8725814,44.2314163,772.5326592492034 42.8718649,44.2314126,773.7130970554158 42.8711519,44.2314161,775.7696248475723 42.8704246,44.2314152,774.6200208035807 42.8697101,44.2314122,773.9884778305853 42.868948,44.2314128,773.2266680373525 42.8682222,44.2314138,775.0060913870235 42.867491,44.2314117,772.819451368547 42.8667451,44.2314144,773.2267637576796 42.866031,44.2314224,774.4233271132117 42.8652733,44.2314107,779.5064290279078 42.8645384,44.2314161,780.1578364259573 42.8638264,44.2314217,780.9893904260947 42.8631055,44.2314309,781.4569222080673 42.8623865,44.2314266,778.6153384987917 42.8616677,44.231423,776.8497626537948 42.8609536,44.2314247,772.2932665765246 42.8602264,44.2314177,772.3016055088681 42.859513,44.231419,776.5521100709902 42.8587889,44.2314277,778.188616984982 42.8580424,44.2314243,776.6538679794761 42.8573128,44.2314223,771.1762389880095 42.8565796,44.2314313,769.0706912848066 42.8567062,44.2299452,787.8844356127195 42.8574271,44.2299508,787.7010458930197 42.8581355,44.2299603,782.6836140101971 42.8588417,44.2299623,783.2560972896507 42.8595932,44.2299715,781.7279349898049 42.8603006,44.2299658,784.6683530633035 42.861024,44.2299677,787.8289441134365 42.8617593,44.2299697,781.9736113303982 42.8624688,44.2299763,781.785158894342 42.8631774,44.2299785,781.1226591931334 42.8638934,44.2299761,783.3531628273088 42.8646077,44.2299792,785.1177076507075 42.8653146,44.2299862,787.7652425013503 42.8660401,44.2299633,784.5296126981971 42.8667502,44.2299778,779.6382385593772 42.8674806,44.2299861,777.7149342055591 42.8681968,44.2299785,776.6953900566409 42.8689313,44.229981,773.3110568862451 42.8696398,44.22998,771.0975263366956 42.870357,44.2299853,771.0161101952356 42.8710728,44.229988,774.0896606744571 42.8717828,44.2299895,774.5551631682164 42.8724978,44.2299868,775.1896576797797 42.8732047,44.2299834,775.990094397532 42.8739246,44.2299835,776.2536462844523 42.8746804,44.2299825,777.9294147550066 42.8753825,44.2299813,778.1858418728777 42.8761056,44.2299855,777.7014526043049 42.8768316,44.2299872,779.3030581153245 42.8775446,44.2299838,779.8125334251027 42.8782714,44.2299843,778.9851326950708 42.8790035,44.2299858,776.3657748798474 42.8797092,44.2299821,775.4312012360529 42.8804175,44.2299853,779.0757089596455 42.881133,44.2299643,782.9030345342121 42.8818574,44.2299845,781.5238039509226 42.8825789,44.2299836,779.2403565447714 42.8833,44.2299842,778.8799207167712 42.8840124,44.2299837,781.4344195473964 42.8847286,44.2299834,784.8639442816692 42.8854531,44.2299637,790.9743391602109 42.8861577,44.229981,790.2499559772723 42.8868753,44.2299793,789.9574764137828 42.8875953,44.2299811,789.2610449056265 42.8883013,44.2299818,784.869514557614 42.8890149,44.2299661,780.1818782420586 42.8897292,44.2299867,777.1895872321886 42.8904435,44.2299875,775.955110281131 42.8911547,44.229985,775.2165827555467 42.891879,44.2299865,774.7501755903623 42.8926058,44.2299879,778.3817832863828 42.8933397,44.2299845,778.933390828792 42.8940664,44.2299883,779.0940204042399 42.8947823,44.229987,779.9105338625934 42.8947854,44.228491,787.0795227054707 42.8940572,44.2285111,785.3791055759913 42.8933355,44.2285137,782.9275654350716 42.8925855,44.2285123,781.8398087796526 42.8918725,44.2285137,781.2053124114012 42.8911173,44.2285126,781.3665256792539 42.8903928,44.2285087,779.683906825468 42.8896619,44.2285043,781.223242787032 42.8889459,44.228502,782.907692694633 42.8882253,44.2285037,784.1241510716341 42.8874957,44.2285067,786.2905647435639 42.8867759,44.228501,787.9889586657541 42.8860629,44.2284983,787.3974237700064 42.8853294,44.2284978,788.7797798860353 42.8846036,44.2284972,788.9321837609234 42.883878,44.2284967,785.7825898390986 42.8831511,44.2284984,783.5340083803188 42.8824042,44.2285,779.783299491824 42.8816592,44.228497,781.7055593569775 42.8809437,44.2284931,783.198997325568 42.880209,44.2284944,783.1083627751544 42.879481,44.2284973,783.8667856614853 42.8787651,44.2284919,782.3262069647064 42.8780458,44.2284969,782.1387046498154 42.87733,44.2284936,781.8881463406169 42.8765878,44.2284924,780.8244408235159 42.8758722,44.228492,779.4619110752975 42.8751176,44.2284917,780.2891356031023 42.8744013,44.2284944,781.0356306311623 42.8736823,44.2284948,781.3540869182037 42.8729772,44.2284918,781.5035990778831 42.8722507,44.228488,783.9559683386815 42.8715288,44.2284884,784.3574062761829 42.8707932,44.2284907,781.9947754805277 42.8700855,44.2284917,779.717308892716 42.8693661,44.2284916,781.6487579335565 42.8686417,44.2284922,780.2171819536669 42.8679073,44.2284936,780.323550276038 42.8671758,44.2284953,781.7989397752866 42.8664593,44.2285078,782.4955260784603 42.865737,44.2284971,790.4578567447655 42.8650043,44.2284953,793.400205624578 42.8642771,44.2284961,794.8286138349279 42.8635349,44.2284969,797.5139271768011 42.8628104,44.2284957,794.6563335780643 42.8620942,44.2284917,791.6407660198182 42.8613815,44.2284929,788.730269717562 42.8606696,44.2284983,787.0548181678397 42.8599523,44.2284948,784.1612483641001 42.859223,44.2284987,782.396672603899 42.8584675,44.2284958,781.3568668581721 42.857749,44.2284935,781.0633007920466 42.8570213,44.2284944,775.9827067951202 42.8567375,44.2270393,788.9611495208499 42.85745,44.2270282,791.7325530814128 42.8581699,44.227045,791.8862672953134 42.8588785,44.2270486,794.0867851691303 42.8595816,44.227049,799.4052379831874 42.8603119,44.2270576,803.9929404050479 42.8610155,44.2270558,804.425375580617 42.8617153,44.227052,802.3657678208251 42.8624304,44.2270541,796.974312618768 42.8631802,44.2270558,793.6170732046212 42.8639235,44.2270547,794.0707662144798 42.8646474,44.2270577,795.2273751800936 42.8653546,44.2270553,804.0158274875166 42.8660585,44.2270604,801.1423297099785 42.8667685,44.2270645,796.550861079378 42.8674832,44.227069,793.6214259510992 42.8681859,44.2270655,790.7328394038091 42.8689137,44.2270635,787.3454258412864 42.8696195,44.2270624,786.0678815632259 42.8703282,44.2270656,783.2083961865458 42.8710353,44.227064,784.4868554205328 42.8717593,44.2270659,782.8784545911213 42.8724739,44.2270627,785.0039462068199 42.8732198,44.2270643,787.9786811233231 42.873948,44.2270464,790.0721203018506 42.8746658,44.2270705,791.3628893948791 42.8753718,44.2270663,790.6853171856393 42.8760712,44.2270685,792.2417634995834 42.8767866,44.2270723,796.401326116268 42.8774962,44.2270693,795.3707880003957 42.8782106,44.2270694,794.7343094476474 42.8789524,44.2270671,792.9259816851875 42.8796616,44.227063,793.5694307080879 42.880389,44.227062,792.5480240747945 42.881106,44.2270406,794.4193597274005 42.8818506,44.2270632,793.8472839441516 42.8825659,44.2270653,793.0248299030252 42.88328,44.2270643,794.5573391137998 42.8839816,44.2270623,794.4357598298723 42.8847262,44.2270647,795.7144940024949 42.8854485,44.2270483,796.3049103725418 42.8861692,44.2270639,793.0956173640072 42.8868817,44.2270651,794.6321371296507 42.8875886,44.2270638,792.5675979720664 42.8883247,44.2270655,791.5332717642909 42.8890552,44.2270663,790.4139016644997 42.8897625,44.2270648,789.4483631642512 42.8904699,44.2270642,788.5488337502273 42.8911861,44.2270644,788.0773675308635 42.8919082,44.2270653,786.8559452137487 42.8914909,44.2255958,812.4085123782213 42.8907866,44.2255807,813.7989118772605 42.8900768,44.2255946,809.7965487830962 42.8893507,44.2255906,808.8029144553113 42.8886419,44.2255834,807.9833595847364 42.8879284,44.2255839,809.579847265103 42.8871988,44.2255831,811.1482208083098 42.8864704,44.2255837,810.8976151006333 42.8857386,44.2255853,809.4779972677707 42.8850203,44.2255872,808.1054677250461 42.8842999,44.2255765,805.6928064451039 42.88358,44.2255724,807.9082103527206 42.8828349,44.2255735,809.4695036107046 42.882128,44.2255732,808.7440255415993 42.8814265,44.2255715,808.917568488691 42.8807126,44.2255749,806.8670809101186 42.8799717,44.2255747,804.5843885353491 42.8792524,44.2255759,806.8428460809691 42.8785249,44.2255731,804.53921406695 42.8777818,44.2255709,802.1694889322904 42.8770677,44.225573,804.0359878720324 42.87635,44.2255673,806.1553905730216 42.8756329,44.2255621,810.6098017648335 42.8748923,44.2255631,812.3461225717434 42.8741695,44.225565,810.1865645500036 42.8734503,44.2255645,805.6200067091956 42.872721,44.2255672,805.4604150847094 42.8720208,44.2255679,805.1989888427264 42.8713052,44.2255667,804.8324471955938 42.8705881,44.2255683,805.8669224503482 42.8698843,44.2255722,806.5185036001834 42.8691877,44.2255718,808.8490897852241 42.8684628,44.2255709,805.812492090342 42.867735,44.2255693,804.0728694288061 42.8670017,44.2255686,805.2312204358934 42.8662798,44.2255706,809.667669095152 42.8655491,44.2255686,815.022024290666 42.8648302,44.2255739,822.9625231042123 42.8641322,44.225577,819.3671334734988 42.8634184,44.2255765,813.7866098265282 42.8626993,44.2255786,810.9790771833448 42.861966,44.2255914,804.0135557332798 42.861263,44.2255757,800.5919568594531 42.8605455,44.2255892,799.61554208451 42.859838,44.2255729,797.1949090015245 42.859118,44.2255824,799.2354406233277 42.8584146,44.2255759,801.5039260923863 42.8576888,44.2255773,804.3393444346119 42.8569618,44.2255788,802.9927561298612 42.8566489,44.2241098,837.6808811716096 42.8573518,44.2241152,834.209384302135 42.8580562,44.2241239,833.3119281199166 42.8588016,44.2241261,832.360670149174 42.8595189,44.2241323,829.232272000263 42.8602301,44.2241304,829.8607586458776 42.8609551,44.2241328,833.1323733353464 42.8616696,44.2241341,835.1679111201898 42.8623882,44.2241391,834.2545098208029 42.8631211,44.2241378,831.3431395778658 42.8638434,44.2241406,835.5217409177973 42.8645749,44.2241384,838.7853533116863 42.8653039,44.2241264,838.1718573641331 42.8660376,44.2241402,836.3546347389872 42.8667603,44.2241276,835.8900932599063 42.867493,44.2241416,828.2508661444617 42.8681998,44.2241274,826.9262088991826 42.8689172,44.2241298,824.5477754164347 42.8696366,44.224149,817.7875130375529 42.8703511,44.2241313,818.2958716111212 42.8710796,44.2241449,813.1306140123453 42.8717895,44.2241483,809.9801424124837 42.8725363,44.2241467,808.7008573928675 42.8732844,44.2241425,810.9305561108558 42.8740031,44.2241482,813.9181619069485 42.8747488,44.224149,815.1148925369558 42.8754486,44.2241487,816.5933220835378 42.8761661,44.2241236,823.9006301828977 42.8769034,44.2241455,824.9605063218271 42.8776174,44.2241474,826.4860465265181 42.8783292,44.2241506,826.0345850282708 42.8790541,44.2241495,824.906166023065 42.8797514,44.2241506,824.5525929113455 42.8804563,44.2241526,824.0650764008308 42.8811738,44.2241473,823.6335710175505 42.8819047,44.2241488,822.5872144811437 42.8826351,44.224148,819.3668331438188 42.8833618,44.224145,819.2764076882252 42.8840717,44.2241453,819.3229068578505 42.8847836,44.2241417,820.3043820355089 42.8855007,44.2241448,819.9799531272131 42.886223,44.2241477,821.669555265955 42.8869706,44.2241471,822.8862847574275 42.8876818,44.2241389,822.3817123098198 42.8883959,44.2241448,823.7172906836413 42.8891027,44.224146,823.135778667308 42.8898129,44.2241455,823.215272220656 42.8905353,44.2241442,821.9958355374283 42.8912546,44.2241445,820.9453942412854 42.8915065,44.2226518,848.8949797359717 42.8908089,44.2226649,850.6386820967538 42.8900907,44.2226771,848.727245507109 42.8893843,44.222661,849.7826179889456 42.8886571,44.2226716,848.9941093715187 42.8879299,44.2226645,848.9814345281854 42.8872021,44.2226722,846.2438949016207 42.8864566,44.2226683,845.1501341409768 42.8857385,44.2226676,844.843577070673 42.8849979,44.2226671,845.7798792989299 42.8842845,44.222663,843.467320045583 42.8835755,44.2226666,845.0128610589492 42.8828535,44.2226663,846.191283029643 42.8821163,44.2226605,847.8625569506544 42.8813905,44.2226668,849.9830169154543 42.8806624,44.2226583,849.7143230828555 42.879949,44.2226566,848.1697863627721 42.8792305,44.2226546,845.6682144962066 42.8785104,44.2226627,846.2297275529045 42.8777933,44.2226646,846.9022012764235 42.87707,44.2226651,847.4346225351455 42.8763379,44.2226611,847.0609456535658 42.8756273,44.2226516,847.9073531997548 42.8749216,44.2226512,849.1688774921764 42.8741884,44.2226668,848.7693782660597 42.8734794,44.2226664,848.8348816679779 42.8727384,44.2226533,846.9380625956228 42.8720155,44.2226559,847.7565061723898 42.8713102,44.2226546,851.7170245179616 42.8705582,44.2226538,851.3632516419897 42.8698332,44.2226502,856.458623453231 42.8691219,44.2226483,856.2800981038623 42.8683714,44.222665,855.0394998110155 42.8676109,44.2226506,854.3825447621008 42.8668488,44.2226502,851.6087116459253 42.8661359,44.2226638,855.4283224415143 42.8654283,44.2226543,855.9487488007396 42.8647017,44.2226523,856.1711255415767 42.8639719,44.2226479,856.1884593352764 42.8632512,44.2226669,855.4690717812593 42.862532,44.22265,858.0683546804161 42.8618177,44.2226492,857.0468206833822 42.8610743,44.2226511,856.2901277926404 42.8603238,44.2226518,856.3883785752821 42.8596103,44.2226539,859.1958770575876 42.8589044,44.2226563,857.0474265424239 42.8581821,44.2226508,857.2277974152898 42.8574799,44.2226506,860.7073457624163 42.8567376,44.2226532,859.5926664821434 42.856153,44.2212041,839.4812546120393 42.8568769,44.2211863,840.3866757153817 42.8576019,44.2212011,837.9464121180245 42.8583346,44.2212003,838.1120498002775 42.8590509,44.2212053,836.8606383389365 42.8597778,44.2212058,834.1572515329718 42.8604854,44.2212081,830.5487593759435 42.8612267,44.2212117,834.6254931494238 42.8619314,44.2212059,836.2249060689635 42.8626594,44.2212066,840.2775281221094 42.8633724,44.2212138,846.6721164620083 42.8641175,44.221215,848.081851634254 42.8648224,44.221207,845.6512450812355 42.86555,44.2212157,847.1789401097992 42.8662735,44.2212156,848.2775260629014 42.8670011,44.2212205,852.2561851929676 42.8677279,44.2212118,852.890710918608 42.8684561,44.2212066,851.8972785640491 42.8691754,44.2212066,848.9288388471217 42.8698897,44.22122,846.9414938011773 42.8706145,44.2212086,842.1029814414558 42.871356,44.2212178,836.7777692007395 42.8720822,44.2212089,833.1632893201231 42.8728025,44.221219,829.9909511278051 42.87352,44.2212199,831.7705084613401 42.8742314,44.2212042,831.4298707205 42.8749401,44.2212174,832.3414881499183 42.8756505,44.2212168,831.554986340821 42.8763782,44.2212177,831.9426083389529 42.8770839,44.2212158,832.4260644934603 42.8778054,44.2212177,831.145656597398 42.8785256,44.22122,834.1282442188775 42.8792423,44.2212064,835.7936600062658 42.879958,44.2212218,837.7263423752165 42.880681,44.2212197,837.3949063358394 42.8814052,44.2212188,839.3904891986319 42.8821567,44.2212191,840.5542564286354 42.882868,44.2212006,841.5615920068527 42.8836101,44.2212008,842.2602987291032 42.8843156,44.2212178,841.1949313408015 42.8850438,44.2212208,841.3475762292602 42.8857787,44.2212004,845.352043682277 42.8865004,44.2212039,845.3516520766703 42.8872215,44.2212227,849.4934003936856 42.8879303,44.2212262,845.8579269600415 42.8886503,44.2212227,841.2114587810586 42.889365,44.2212227,841.7969898767021 42.8900744,44.2212196,841.9874582663045 42.8907963,44.2212184,840.1310237489992 42.8878286,44.2197476,860.3983932395523 42.8870821,44.2197479,859.2016610645067 42.8863448,44.219747,857.6979759696076 42.8856145,44.219748,854.3733531284964 42.8848922,44.2197495,850.9297857335118 42.8841449,44.2197433,850.7429873825513 42.883409,44.2197436,846.3303224382206 42.8826849,44.2197452,845.457744566634 42.8819877,44.2197478,847.3433467300597 42.8812647,44.2197449,847.20973351538 42.8805242,44.2197425,847.5580139948416 42.8798203,44.2197421,847.2195454384831 42.8790935,44.219744,842.1349532741069 42.8783766,44.2197381,840.8903504892496 42.8776673,44.219737,840.7778410826398 42.8769423,44.2197454,842.3283215401 42.8762029,44.2197318,841.743503500005 42.8754978,44.2197349,845.5810602792109 42.8747848,44.2197478,846.2606592786312 42.8740655,44.219731,848.6869385243286 42.8733445,44.2197323,852.3923775009911 42.8726372,44.2197456,853.3670164789996 42.8719269,44.2197486,853.4475393755991 42.8712117,44.2197281,852.2698096455994 42.8704989,44.2197419,853.3934185049535 42.8697436,44.2197298,852.1635135704591 42.8690317,44.2197406,852.9840998858717 42.8682965,44.2197289,850.9813261795769 42.8675669,44.2197526,852.2279219735462 42.8668466,44.2197316,848.825154996025 42.8661401,44.2197253,846.8536142339058 42.8654281,44.2197304,843.3831461818248 42.8647191,44.2197276,848.7816225867643 42.8639898,44.2197462,850.6551722991915 42.8632584,44.2197475,849.4655453594717 42.8625415,44.2197219,850.3667563010057 42.861834,44.2197262,847.9793092675103 42.8611241,44.2197505,842.3840360008029 42.8603925,44.2197342,839.6222414800392 42.8596598,44.2197344,838.2535958888573 42.8589488,44.2197516,841.5382486479144 42.8582115,44.2197297,844.9583649527024 42.8574928,44.2197261,846.2927722226581 42.8567588,44.2197275,845.4491297240078 42.8560107,44.2197309,842.0534167128371 42.8561695,44.2182774,856.2396750749677 42.8568893,44.218266,858.8841350960961 42.8576174,44.2182737,857.8598284359887 42.8583506,44.2182837,855.6305758626804 42.8590719,44.2182871,860.2331853514156 42.8597769,44.2182858,860.5076469680488 42.8605039,44.2182894,859.5212945055404 42.861241,44.2182916,860.0369928981788 42.8619796,44.2182918,860.5386819088296 42.8627097,44.2182851,857.8712518038783 42.8634433,44.2182946,860.643996923624 42.86417,44.2182958,858.5566198545091 42.8649003,44.2182938,857.9352354159352 42.8656476,44.2182966,857.5580041740135 42.8663647,44.2183003,858.3415897702477 42.8670841,44.2182996,858.4981484306317 42.8677889,44.2183041,861.3556635044066 42.8685059,44.2183076,864.9192465516811 42.8692171,44.2183002,868.4166899731113 42.8699415,44.2182985,871.7182709369615 42.870662,44.2183018,868.0468743018735 42.8713921,44.2183035,863.3525234937712 42.8721286,44.2183051,860.8252123518295 42.8728639,44.2183039,860.2768672014384 42.8735724,44.2182883,855.0072162930243 42.8742874,44.2183061,854.6609213570479 42.8749972,44.2183016,854.6483833033885 42.8757291,44.2183005,855.8790175311793 42.8764761,44.2183015,855.9447673615241 42.8772092,44.218304,855.0414431034307 42.8779342,44.2183009,857.5260147179183 42.878635,44.2183052,858.1725024220439 42.8793537,44.2182849,857.8018721963042 42.8800703,44.218304,858.257599437116 42.8808244,44.2183033,858.8393783156598 42.8715076,44.216823,875.397299383902 42.8707833,44.2168203,874.2316753396107 42.8700617,44.2168253,872.7821410426284 42.8693225,44.2168202,870.6163997571058 42.8686063,44.2168198,872.840848819971 42.8679009,44.2168207,872.0993787162093 42.8671919,44.2168229,870.5508980257619 42.8664897,44.2168228,867.3764388083157 42.8657416,44.2168238,864.4896985542574 42.865039,44.2168155,861.5341593843267 42.8643333,44.2168159,860.6196826551339 42.8636255,44.2168135,859.178166151924 42.8629219,44.2168189,860.0567499795407 42.8621734,44.2168148,863.5949590091644 42.8614531,44.2168118,865.2993574617687 42.8607289,44.2168146,865.4107859523032 42.8600128,44.2168281,868.0013670058887 42.859307,44.2168083,868.5966987211159 42.8585536,44.2168108,869.2269389908536 42.8578376,44.21681,872.1493855182836 42.8570902,44.216812,875.3726591638798</ns0:coordinates>
          </ns0:LineString>
        </ns0:Placemark>
      </ns0:Folder>
    </Folder></ns0:Folder>
  </ns0:Document>
</ns0:kml>